<?xml version="1.0" encoding="UTF-8" standalone="no"?>
<!-- Created with Inkscape (http://www.inkscape.org/) -->

<svg
   xmlns:dc="http://purl.org/dc/elements/1.1/"
   xmlns:cc="http://creativecommons.org/ns#"
   xmlns:rdf="http://www.w3.org/1999/02/22-rdf-syntax-ns#"
   xmlns:svg="http://www.w3.org/2000/svg"
   xmlns="http://www.w3.org/2000/svg"
   xmlns:sodipodi="http://sodipodi.sourceforge.net/DTD/sodipodi-0.dtd"
   xmlns:inkscape="http://www.inkscape.org/namespaces/inkscape"
   width="131.70967mm"
   height="27.536825mm"
   viewBox="0 0 466.68781 97.571424"
   id="svg2"
   version="1.1"
   inkscape:version="0.91 r13725"
   sodipodi:docname="logo.svg">
  <defs
     id="defs4" />
  <sodipodi:namedview
     id="base"
     pagecolor="#ffffff"
     bordercolor="#666666"
     borderopacity="1.0"
     inkscape:pageopacity="0.0"
     inkscape:pageshadow="2"
     inkscape:zoom="1.4"
     inkscape:cx="150.43099"
     inkscape:cy="-71.212098"
     inkscape:document-units="px"
     inkscape:current-layer="layer1"
     showgrid="false"
     inkscape:window-width="1680"
     inkscape:window-height="994"
     inkscape:window-x="1920"
     inkscape:window-y="27"
     inkscape:window-maximized="1"
     fit-margin-top="0"
     fit-margin-left="0"
     fit-margin-right="0"
     fit-margin-bottom="0" />
  <metadata
     id="metadata7">
    <rdf:RDF>
      <cc:Work
         rdf:about="">
        <dc:format>image/svg+xml</dc:format>
        <dc:type
           rdf:resource="http://purl.org/dc/dcmitype/StillImage" />
        <dc:title></dc:title>
      </cc:Work>
    </rdf:RDF>
  </metadata>
  <g
     inkscape:label="Layer 1"
     inkscape:groupmode="layer"
     id="layer1"
     transform="translate(-67.85714,-22.619366)">
    <g
       id="g3354"
       transform="matrix(2.7719156,0,0,2.7719156,110.19185,256.44304)">
      <circle
         id="circle3338"
         r="9"
         cy="-65.454544"
         cx="12.727273"
         style="fill:#b2ebf2"
         clip-path="none" />
      <path
         id="path3340"
         d="m 12.727273,-77.454546 c -6.6000004,0 -12.00000042,5.4 -12.00000042,12 0,6.6 5.40000002,12 12.00000042,12 6.6,0 12,-5.4 12,-12 0,-6.6 -5.4,-12 -12,-12 z m 0,20 c -4.4000004,0 -8.0000004,-3.6 -8.0000004,-8 0,-4.4 3.6,-8 8.0000004,-8 4.4,0 8,3.6 8,8 0,4.4 -3.6,8 -8,8 z"
         inkscape:connector-curvature="0"
         style="fill:#4dd0e1"
         clip-path="none" />
      <g
         id="g3342"
         style="fill:#3f51b5;fill-opacity:1"
         clip-path="none"
         transform="translate(-19.272727,-89.454546)">
        <polygon
           id="polygon3344"
           points="22.6,26 30,26 30,22 25.4,22 19.8,5.1 13.6,27.7 11.4,22 4,22 4,26 8.6,26 14.4,40.3 20.2,18.9 "
           style="fill:#3f51b5;fill-opacity:1" />
        <circle
           id="circle3346"
           r="4"
           cy="24"
           cx="32"
           style="fill:#3f51b5;fill-opacity:1" />
      </g>
    </g>
    <text
       xml:space="preserve"
       style="font-style:normal;font-variant:normal;font-weight:normal;font-stretch:normal;font-size:72.62625122px;line-height:125%;font-family:'Ubuntu Condensed';-inkscape-font-specification:'Ubuntu Condensed, Normal';text-align:start;letter-spacing:0px;word-spacing:0px;writing-mode:lr-tb;text-anchor:start;fill:#3f51b5;fill-opacity:1;stroke:none;stroke-width:1px;stroke-linecap:butt;stroke-linejoin:miter;stroke-opacity:1"
       x="200.67979"
       y="98.507278"
       id="text3361"
       sodipodi:linespacing="125%"
       clip-path="none"><tspan
         sodipodi:role="line"
         id="tspan3363"
         x="200.67979"
         y="98.507278">SensorBoard</tspan></text>
  </g>
</svg>
